{
  "tasks": [
    {
      "text": "Task 2",
      "day": "Friday",
      "reminder": true,
      "id": 8
    },
    {
      "text": "Task3",
      "day": "Today",
      "reminder": true,
      "id": 9
    },
    {
      "text": "Task 4",
      "day": "Weekend",
      "reminder": true,
      "id": 10
    }
  ]
}